~,~,~,~,~,~,~,~,~,~
~,~,~,~,~,~,~,~,~,~
~,~,~,~,~,~,~,~,~,~
~,~,~,~,~,c,c,c,c,~
~,~,~,p,p,p,p,p,p,~
~,~,s,~,~,~,~,~,~,~
~,~,s,~,~,~,~,~,~,~
~,~,s,~,~,~,~,~,~,~
~,~,~,~,~,~,~,~,~,~
~,o,o,o,~,~,t,t,~,~
