~,~,~,s,s,s,~,~,~,~
~,~,~,~,t,c,c,c,c,~
~,~,~,~,t,~,~,~,~,~
~,~,~,~,~,~,~,~,~,~
~,~,~,~,~,~,~,~,~,~
~,~,~,~,~,~,~,~,~,~
~,~,~,o,o,o,~,~,~,~
~,~,~,~,~,~,~,~,~,~
~,p,p,p,p,p,~,~,~,~
~,~,~,~,~,~,~,~,~,~
