~,~,~,~,~,t,~,o,~,~
~,~,~,~,~,t,~,o,~,~
~,~,~,~,s,~,~,o,~,~
~,~,~,~,s,~,~,~,~,~
~,~,~,~,s,~,~,~,~,~
~,~,~,~,p,p,p,p,p,~
~,~,~,~,~,~,~,~,~,~
~,~,~,~,~,~,~,~,~,~
~,~,~,~,~,c,c,c,c,c
~,~,~,~,~,~,~,~,~,~
