~,~,~,~,~,~,~,~,~,~
~,~,~,~,~,~,~,~,~,p
~,~,~,~,~,~,~,~,~,p
~,~,~,~,~,~,~,~,~,p
~,~,~,~,~,~,s,~,~,p
o,~,~,~,~,~,s,~,~,p
o,~,~,t,c,c,c,c,t,~
o,~,~,~,~,~,s,~,~,~
~,~,~,~,~,~,~,~,~,~
~,~,~,~,~,~,~,~,~,~
