~,~,~,~,~,~,~,~,~,~
~,p,~,~,~,~,~,~,~,~
~,p,~,~,~,~,~,~,~,~
o,p,~,~,~,~,~,~,~,~
o,p,c,c,c,c,~,~,~,~
o,p,~,~,~,~,~,~,~,~
s,~,~,~,~,~,t,t,~,~
s,~,~,~,~,~,~,~,~,~
s,~,~,~,~,~,~,~,~,~
~,~,~,~,~,~,~,~,~,~
