~,~,~,~,~,~,~,~,~,~
~,~,~,~,~,~,~,~,~,~
~,~,~,~,~,~,~,~,~,~
~,~,~,~,o,~,p,~,c,~
~,~,~,~,o,~,~,~,c,~
~,~,~,~,o,~,p,~,c,~
~,~,~,~,~,s,p,~,c,~
~,~,~,~,~,s,p,~,~,~
~,~,~,~,~,s,p,~,~,~
~,~,~,~,~,~,t,t,~,~
