~,~,~,~,~,~,~,~,~,~
~,~,~,~,~,~,~,~,~,~
~,~,~,~,~,~,~,~,~,~
o,o,o,~,~,s,s,s,s,s
~,c,~,~,~,~,~,~,~,~
~,c,~,~,~,~,~,~,~,~
~,c,~,~,~,~,~,~,~,~
~,c,~,~,~,~,~,~,~,~
~,~,~,~,t,~,~,~,~,~
~,p,p,p,t,~,~,~,~,~
