~,~,~,~,~,~,~,t,t,~
~,~,~,~,~,~,~,~,~,~
~,~,~,~,~,~,~,~,~,~
~,~,~,~,~,~,~,~,x,~
~,~,~,~,~,~,~,~,x,~
~,~,o,o,o,~,~,~,x,~
~,c,c,c,c,~,~,~,x,~
~,~,~,~,~,~,~,~,x,~
~,~,~,~,s,s,s,~,~,~
~,~,~,~,~,~,~,~,~,~
