~,~,~,~,~,~,~,~,~,~
~,~,~,~,~,~,~,~,~,~
~,~,~,~,~,~,~,~,~,~
s,s,s,~,~,~,o,p,~,~
~,~,~,~,~,~,o,p,~,~
~,~,~,~,~,~,o,p,~,~
~,~,c,c,c,c,c,p,~,~
~,~,~,t,t,~,~,~,~,~
~,~,~,~,~,~,~,~,~,~
~,~,~,~,~,~,~,~,~,~
