~,~,~,~,~,~,~,t,t,~
~,~,o,o,o,~,~,~,c,~
~,~,~,~,~,~,~,~,c,~
s,s,s,~,~,~,~,p,c,~
~,~,~,~,~,~,~,p,c,~
~,~,~,~,~,~,~,p,~,~
~,~,~,~,~,~,~,p,~,~
~,~,~,~,~,~,p,~,~,~
~,~,~,~,~,~,~,~,~,~
~,~,~,~,~,~,~,~,~,~
