~,~,~,~,p,~,~,~,~,~
~,~,~,~,p,c,~,~,o,~
~,~,~,~,p,c,~,~,o,~
~,~,~,~,p,c,~,~,o,~
~,~,~,~,p,c,~,~,~,~
~,~,~,~,s,s,s,~,~,~
~,~,~,~,~,~,~,~,~,~
~,~,~,~,~,~,~,t,~,~
~,~,~,~,~,~,~,t,~,~
~,~,~,~,~,~,~,~,~,~
