~,~,~,~,~,~,~,~,~,~
~,c,c,c,c,~,~,~,~,~
~,~,~,~,~,~,~,~,~,~
~,t,~,~,~,p,~,~,~,~
~,t,~,~,~,p,~,~,~,~
~,~,~,~,~,p,~,~,~,~
~,~,~,~,~,p,~,~,~,~
~,~,~,~,o,p,~,s,s,~
~,~,~,~,o,~,~,~,~,~
~,~,~,~,o,~,~,~,~,~
