~,~,~,p,~,~,~,~,t,t
~,o,~,p,~,~,~,~,~,~
~,o,~,p,~,~,~,~,~,~
~,o,~,p,~,~,~,~,~,~
~,~,~,p,~,~,~,~,~,~
~,~,~,~,s,~,~,~,~,~
~,~,~,~,s,~,~,~,~,~
~,~,~,~,s,~,~,~,~,~
~,~,~,~,~,~,~,~,~,~
~,c,c,c,c,~,~,~,~,~
