~,~,~,~,~,~,~,~,~,~
~,~,~,~,~,~,~,~,~,~
~,~,~,~,~,~,~,~,~,~
~,~,~,~,~,~,~,~,~,~
~,~,~,~,~,o,o,o,~,~
~,~,~,~,~,~,~,~,~,~
~,p,p,p,p,p,~,~,~,s
~,~,~,~,~,~,~,~,~,s
~,~,t,t,~,c,c,c,c,s
~,~,~,~,~,~,~,~,~,~
