~,~,~,~,~,p,p,p,p,p
~,~,~,x,~,~,~,~,~,~
~,~,~,x,~,~,~,~,~,~
~,~,c,c,c,c,~,~,~,~
~,~,~,~,~,~,~,~,~,~
~,~,~,~,~,~,~,~,~,~
~,~,~,~,~,~,~,o,~,~
~,~,s,s,s,~,~,o,~,~
~,~,~,~,~,~,~,o,~,~
~,~,~,~,~,~,~,~,~,~
