~,~,~,~,~,~,~,~,~,~
~,~,~,~,~,~,~,p,~,~
~,~,~,~,~,~,p,s,s,s
~,t,~,~,~,p,~,~,~,~
~,t,~,~,p,~,~,~,~,~
~,~,~,p,~,~,~,~,~,~
~,~,~,~,~,~,~,o,o,o
~,~,~,~,~,~,~,~,~,~
~,~,~,c,c,c,c,~,~,~
~,~,~,~,~,~,~,~,~,~
