~,~,~,~,~,~,~,~,~,~
~,~,~,~,~,t,~,~,~,~
~,~,~,~,o,t,o,c,o,~
~,~,~,~,~,~,~,c,~,s
~,~,~,~,~,~,~,c,~,s
~,~,~,~,~,~,~,c,~,s
~,~,~,~,~,~,~,~,~,~
~,~,~,~,~,~,~,~,~,~
~,~,~,~,~,~,~,~,~,~
~,p,p,p,p,p,~,~,~,~
