~,~,~,~,~,~,~,~,~,~
~,~,~,~,~,p,p,p,p,p
~,~,~,s,s,s,~,~,~,~
~,~,~,~,~,t,~,~,~,~
~,~,~,o,t,~,~,~,~,~
~,~,~,o,~,~,~,~,~,~
~,~,~,o,~,~,~,~,~,~
~,c,c,c,c,~,~,~,~,~
~,~,~,~,~,~,~,~,~,~
~,~,~,~,~,~,~,~,~,~
