~,~,~,~,o,~,~,~,~,~
~,~,~,~,o,~,~,~,~,~
~,~,~,~,o,~,t,~,~,~
~,~,~,~,~,~,t,~,~,~
~,~,~,~,~,~,~,~,~,~
~,~,~,~,~,~,~,~,~,~
~,~,~,p,p,p,p,p,~,~
~,~,~,~,~,~,~,~,~,~
~,~,~,~,~,~,s,s,s,~
~,~,x,x,x,x,~,~,~,~
