~,~,~,~,~,~,~,~,~,~
~,~,~,~,~,~,~,~,~,~
~,~,~,~,~,~,o,~,~,~
~,~,~,~,~,t,o,~,~,~
~,~,p,~,~,~,o,~,~,~
~,~,p,~,~,t,~,~,~,c
~,~,p,~,~,s,~,~,~,c
~,~,p,~,~,s,~,~,~,c
~,~,p,~,~,s,~,~,~,c
~,~,~,~,~,~,~,~,~,~
