~,~,~,~,~,o,~,~,~,~
~,~,~,~,~,o,~,~,~,~
~,~,~,~,~,o,~,~,~,~
~,~,~,~,t,~,s,s,s,~
~,~,~,~,t,~,~,~,~,~
~,~,~,~,t,~,~,~,~,~
~,~,~,~,t,~,~,~,~,~
~,~,~,~,~,~,~,~,~,~
~,p,p,p,p,p,~,~,~,~
~,~,c,c,~,~,~,~,~,~
