~,~,~,~,~,~,~,~,~,~
~,~,~,p,~,~,~,~,~,~
~,~,~,~,p,~,~,~,s,t
~,~,~,~,~,p,~,~,s,t
~,~,~,~,~,~,p,~,s,~
~,~,~,~,~,~,~,p,~,~
~,~,~,~,~,~,~,~,~,~
~,~,~,~,~,~,~,~,o,~
~,~,~,~,~,~,~,~,o,~
~,~,~,c,c,c,c,~,o,~
