~,~,~,~,~,t,~,~,~,~
~,~,~,~,~,t,~,~,~,~
~,~,~,~,~,~,~,o,~,c
~,~,~,~,~,~,~,o,~,c
~,~,~,~,~,~,~,o,~,c
~,~,~,~,~,~,~,p,~,c
~,~,~,~,~,~,~,p,~,s
~,~,~,~,~,~,~,p,~,s
~,~,~,~,~,~,~,p,~,s
~,~,~,~,~,~,~,p,~,~
