~,~,~,~,~,~,~,~,~,~
~,~,~,~,~,~,o,o,o,~
~,~,~,~,~,~,~,~,~,~
~,c,~,~,~,~,~,~,p,~
~,~,c,~,~,~,~,~,p,t
~,~,~,c,~,~,~,~,p,t
~,~,~,~,c,~,~,~,p,~
~,~,~,~,~,~,~,~,p,~
s,s,s,~,~,~,~,~,~,~
~,~,~,~,~,~,~,~,~,~
