~,~,~,~,~,~,~,~,~,~
~,~,~,~,~,~,~,~,~,~
x,x,x,x,x,~,~,~,~,~
~,~,~,~,~,~,~,~,~,~
~,~,~,~,~,~,~,~,~,~
~,~,~,~,~,~,~,~,~,~
t,~,s,s,s,~,~,~,~,~
t,~,~,~,~,~,~,~,~,~
~,~,~,~,~,~,~,~,~,~
~,o,o,o,~,~,c,c,c,c
