~,~,~,~,~,~,~,~,s,~
~,~,~,~,~,~,~,~,c,~
~,~,p,p,p,p,p,~,c,~
~,~,~,~,~,~,~,~,c,~
~,~,~,~,~,~,~,~,c,~
t,~,~,~,~,~,~,~,s,~
t,~,~,~,~,~,~,~,s,~
~,~,~,~,~,~,~,~,~,~
~,~,~,~,~,~,o,o,o,~
~,~,~,~,~,~,~,~,~,~
