~,~,~,~,s,~,~,~,~,~
~,~,~,~,s,~,~,~,~,~
~,~,~,~,s,~,~,~,~,~
~,o,o,o,~,~,~,~,~,~
~,~,~,~,~,~,~,~,~,~
~,p,p,p,p,p,~,~,~,~
~,~,~,~,~,~,~,~,~,~
~,~,c,c,c,c,~,t,~,~
~,~,~,~,~,~,~,~,t,~
~,~,~,~,~,~,~,~,~,~
