~,~,~,~,~,~,~,c,~,~
~,~,~,~,~,~,~,c,~,~
~,~,~,~,~,~,~,c,~,~
~,~,~,~,~,~,~,c,~,~
~,~,t,o,~,p,p,p,p,~
~,~,t,o,p,~,~,~,~,~
~,s,~,o,~,~,~,~,~,~
~,s,~,~,~,~,~,~,~,~
~,s,~,~,~,~,~,~,~,~
~,~,~,~,~,~,~,~,~,~
