~,~,~,~,p,p,p,p,~,~
~,~,~,~,~,~,~,~,~,~
~,~,~,~,~,~,~,~,~,~
~,~,~,~,~,~,~,~,c,~
~,~,t,~,~,~,~,~,c,~
o,~,t,~,~,~,~,~,c,~
o,~,~,~,~,~,~,~,c,~
o,~,~,~,~,~,~,~,c,~
~,~,~,~,~,s,s,s,~,~
~,~,~,~,~,~,~,~,~,~
