~,~,~,~,~,~,~,~,~,~
~,~,~,s,s,s,~,~,~,t
~,~,~,~,~,~,~,~,~,t
~,~,c,c,c,c,~,~,~,~
~,o,~,~,~,~,~,~,~,~
~,~,o,~,~,~,~,~,p,~
~,~,~,o,~,~,~,~,p,~
~,~,~,~,~,~,~,~,p,~
~,~,~,~,~,~,~,~,p,~
~,~,~,~,~,~,~,~,p,~
