~,~,~,~,~,~,~,s,~,~
~,~,~,~,~,~,~,s,~,~
p,~,~,~,~,~,~,s,~,~
p,~,~,~,~,c,~,~,~,t
p,~,~,~,~,c,~,~,t,~
p,~,~,~,~,c,~,~,~,~
p,~,~,~,~,c,~,~,~,~
~,~,~,~,~,~,~,~,~,~
~,~,~,~,~,~,~,o,o,o
~,~,~,~,~,~,~,~,~,~
