~,~,~,~,~,~,~,~,~,~
~,s,s,s,~,~,~,~,~,~
~,~,~,~,~,~,~,~,~,~
~,~,~,~,~,~,~,~,~,~
~,~,~,~,~,~,~,~,~,~
~,~,~,~,~,~,~,~,t,t
~,~,~,~,~,~,~,~,~,~
~,c,c,c,c,~,~,~,~,~
~,~,~,~,~,~,~,o,o,o
~,p,p,p,p,p,~,~,~,~
