~,~,~,~,~,~,~,~,~,~
~,~,~,~,~,~,~,p,~,~
~,~,~,~,~,t,~,p,~,~
~,~,~,~,~,t,~,p,x,~
~,~,~,~,~,~,~,p,x,~
~,~,s,~,~,~,~,p,x,~
~,~,s,~,~,~,~,~,~,~
~,~,s,~,~,~,~,~,~,~
~,~,~,~,~,~,~,~,~,~
~,~,~,~,~,~,c,c,c,c
