~,~,~,~,~,~,~,~,~,~
~,~,~,~,p,~,~,~,~,~
~,~,~,~,p,~,~,~,~,~
~,t,~,~,p,~,~,~,~,~
~,t,~,~,p,~,~,x,~,~
~,s,~,~,p,~,~,x,~,~
~,s,~,~,~,~,~,x,~,~
~,s,o,o,o,~,~,x,~,~
~,~,~,~,~,~,~,~,~,~
~,~,~,~,~,~,~,~,~,~
