~,~,~,~,~,~,~,~,~,~
~,~,~,~,t,~,~,~,~,~
~,~,c,t,~,~,~,~,~,~
~,~,c,~,~,~,~,~,~,~
~,~,c,~,~,~,~,~,~,~
~,~,c,~,~,~,~,~,~,p
~,~,~,~,s,s,s,o,~,p
~,~,~,~,~,~,~,o,~,p
~,~,~,~,~,~,~,o,~,p
~,~,~,~,~,~,~,~,~,p
