~,~,~,~,~,~,~,~,~,~
~,~,~,~,~,~,~,~,~,~
~,~,t,t,~,~,~,~,~,~
~,~,~,~,s,s,s,~,~,~
~,~,~,~,~,~,~,~,~,~
o,~,~,c,c,c,c,~,~,~
o,~,~,~,~,~,~,~,~,~
o,~,~,~,~,~,~,~,~,~
p,p,p,p,p,~,~,~,~,~
~,~,~,~,~,~,~,~,~,~
