~,~,~,~,~,~,~,~,~,~
~,~,~,~,~,~,~,~,t,~
~,~,~,~,~,~,~,~,t,~
~,~,~,~,~,~,~,~,t,~
~,c,~,~,~,~,~,~,t,~
~,c,~,~,~,~,~,~,t,s
~,c,~,p,~,~,~,~,~,s
~,c,~,p,~,~,~,~,~,s
~,~,~,o,o,o,~,~,~,~
~,~,~,~,~,~,~,~,~,~
