~,~,~,~,~,~,~,~,~,~
~,~,~,~,~,~,o,o,o,~
~,c,~,~,~,~,~,~,~,~
~,c,~,~,~,~,~,~,~,~
~,~,~,~,~,~,~,s,~,~
~,~,~,~,~,~,~,s,~,~
p,p,p,p,p,~,~,s,~,~
~,~,~,~,~,~,~,~,~,~
~,~,t,t,t,t,~,~,~,~
~,~,~,~,~,~,~,~,~,~
