~,~,~,~,~,~,~,~,~,~
~,~,~,~,~,~,~,~,~,~
~,~,~,~,~,~,~,~,~,~
~,~,~,~,~,~,~,~,~,~
s,~,~,~,~,~,~,~,~,~
s,~,c,c,c,c,~,~,~,~
p,p,p,p,p,~,~,~,~,~
s,~,~,~,~,~,~,~,~,~
~,~,o,o,o,~,~,~,~,~
~,~,~,~,~,~,~,t,t,~
