~,~,~,~,~,~,~,~,c,~
~,~,~,~,~,~,~,~,c,~
~,~,~,~,~,~,~,~,c,~
~,~,~,~,~,o,~,~,c,~
~,s,~,~,~,o,p,~,~,~
~,s,~,~,~,o,p,~,~,~
~,s,~,~,~,~,p,~,~,~
~,~,~,~,t,~,p,~,~,~
~,~,~,~,t,~,p,~,~,~
~,~,~,~,~,~,~,~,~,~
