~,~,~,~,~,~,~,~,~,~
~,~,~,~,~,~,~,~,~,~
~,~,~,~,~,~,~,~,~,~
~,~,t,~,~,~,~,~,~,~
~,~,t,~,~,~,~,~,~,o
~,~,~,~,~,p,~,~,~,o
c,s,~,~,~,p,~,~,~,o
c,s,~,~,~,p,~,~,~,~
c,~,~,~,~,p,~,~,~,~
c,s,~,~,~,p,~,~,~,~
