~,~,~,~,~,~,~,~,~,~
~,~,~,~,~,c,c,c,c,~
~,~,~,t,t,~,~,~,~,~
~,~,~,~,~,~,~,~,~,~
~,~,~,~,~,~,~,~,~,~
~,~,~,~,o,o,o,~,~,~
~,~,~,~,~,s,s,s,~,~
~,~,~,~,~,~,~,~,~,~
~,~,~,~,p,~,p,p,p,p
~,~,~,~,~,~,~,~,~,~
