~,~,~,p,~,~,~,~,~,s
~,~,~,p,~,~,~,~,~,s
~,~,~,p,~,t,~,~,~,s
~,~,~,~,~,t,~,~,~,~
~,~,~,~,~,~,~,~,~,~
~,~,~,~,~,~,c,c,c,c
~,~,~,~,~,~,~,~,~,~
~,~,~,~,~,~,~,~,~,~
~,~,~,o,o,o,o,o,~,~
~,~,~,~,~,~,~,~,~,~
