~,~,~,~,~,~,~,~,~,~
~,~,~,~,~,~,~,~,~,~
~,~,~,~,~,~,~,~,t,t
~,~,s,s,s,~,~,~,~,~
~,~,p,p,p,p,p,c,~,~
~,o,o,o,~,~,~,c,~,~
~,~,~,~,~,~,~,c,~,~
~,~,~,~,~,~,~,~,~,~
~,~,~,~,~,~,~,~,~,~
~,~,~,~,~,~,~,~,~,~
