~,p,~,~,~,~,~,~,~,~
~,~,p,t,t,~,~,~,~,~
~,~,~,p,~,~,~,~,~,~
~,~,~,~,p,~,~,~,~,~
~,~,~,~,~,p,~,~,~,~
~,~,~,~,~,~,~,~,~,~
~,~,~,~,~,~,~,~,~,~
~,~,~,~,~,~,~,~,~,~
c,c,c,c,~,~,s,s,s,~
~,~,~,~,~,~,~,o,o,o
