~,~,~,~,~,~,~,~,~,~
~,~,~,~,~,~,~,~,~,~
~,s,~,~,c,~,~,~,~,~
~,s,o,~,c,~,~,~,~,~
~,s,o,~,c,~,~,~,~,~
~,~,o,~,c,~,~,~,~,~
~,~,~,~,~,~,~,~,~,~
~,~,~,p,p,p,p,p,p,~
~,~,~,~,~,~,~,~,~,~
~,~,~,t,t,~,~,~,~,~
