~,~,~,~,~,~,~,~,~,~
~,~,~,~,~,~,~,~,~,~
~,~,~,~,~,~,~,~,~,~
~,~,~,~,~,~,~,~,~,~
~,~,~,~,~,~,~,s,~,~
~,~,~,t,c,c,c,c,t,~
~,~,~,~,~,~,~,s,~,~
~,~,~,~,~,~,~,s,~,~
~,~,p,p,p,p,p,~,~,~
~,~,~,~,~,o,o,o,~,~
