~,~,~,~,~,~,~,~,t,~
~,o,~,~,~,~,~,~,t,~
~,o,~,~,~,~,c,c,c,c
~,o,~,~,~,p,p,p,p,p
~,~,~,~,~,~,~,~,~,~
~,~,~,~,~,~,~,~,~,~
~,~,~,~,~,~,~,~,~,~
~,~,~,~,~,~,~,~,~,~
~,~,~,~,~,~,~,~,~,~
~,~,s,s,s,~,~,~,~,~
