~,~,~,~,~,~,~,~,~,~
~,~,~,~,~,~,~,~,~,~
~,~,~,~,~,~,~,~,~,~
~,~,~,~,~,~,~,~,~,~
~,~,~,~,~,~,~,~,~,~
s,c,~,~,~,p,p,p,p,p
s,c,~,~,~,~,o,o,o,o
s,c,~,~,~,~,~,~,~,~
~,~,~,~,~,~,~,t,t,~
~,~,~,~,~,~,~,~,~,~
