~,~,~,~,~,~,~,~,~,~
~,~,~,~,~,~,~,~,~,~
~,~,~,~,~,~,~,~,~,~
~,~,~,~,~,~,~,~,~,~
~,~,~,~,~,~,~,~,~,s
~,~,~,~,~,~,~,t,~,s
~,~,p,p,p,p,p,t,~,s
~,~,~,o,~,~,c,c,c,c
~,~,o,~,~,~,~,~,~,~
~,o,~,~,~,~,~,~,~,~
