~,~,~,~,~,~,~,~,~,c
~,~,~,~,~,~,~,~,~,c
~,~,~,t,t,~,p,~,~,c
~,~,~,~,s,~,p,~,~,c
~,~,~,~,s,~,~,p,~,~
~,~,~,~,s,~,p,~,~,~
~,~,~,~,~,~,p,~,~,~
~,~,~,~,~,~,~,o,~,~
~,~,~,~,~,~,~,o,~,~
~,~,~,~,~,~,~,o,~,~
