~,~,~,~,~,~,~,~,~,~
~,~,~,~,~,~,~,~,~,~
p,~,~,~,~,~,s,~,~,~
p,~,~,~,~,~,s,~,~,~
p,~,o,~,~,~,s,~,~,~
p,t,t,~,~,~,~,~,~,~
p,~,o,~,~,~,~,~,~,~
~,~,o,~,~,~,~,~,~,~
~,~,~,~,~,~,~,~,~,~
~,~,~,~,~,c,c,c,c,~
