~,~,c,~,~,~,~,~,~,~
~,~,c,~,~,~,~,~,~,~
~,~,c,~,~,~,~,~,~,~
~,~,~,~,~,~,p,~,~,~
~,~,~,~,~,~,p,~,s,o
~,~,~,~,~,~,p,~,s,o
~,~,~,~,~,~,p,~,s,o
~,~,~,~,~,~,p,~,~,o
~,~,~,~,~,~,~,~,~,~
~,~,~,~,~,~,t,t,~,~
