~,~,~,~,~,~,~,~,~,o
~,~,~,~,~,~,~,~,~,o
p,~,~,t,t,~,~,~,~,o
p,~,~,~,~,~,~,~,~,~
p,~,~,~,~,~,~,~,~,~
~,p,~,~,~,~,~,~,~,~
p,c,c,c,c,~,~,~,~,~
~,~,s,s,s,~,~,~,~,~
~,~,~,~,~,~,~,~,~,~
~,~,~,~,~,~,~,~,~,~
