~,~,~,~,~,~,~,~,~,~
~,~,~,~,~,~,~,s,s,~
~,o,~,~,~,~,~,~,~,~
~,o,~,~,~,~,~,~,~,~
~,o,~,~,~,~,~,~,~,~
~,~,~,~,~,~,~,~,~,t
~,~,~,~,~,~,~,~,~,t
~,c,c,c,c,~,~,~,~,~
~,~,~,~,~,~,~,~,~,~
~,p,p,p,p,p,~,~,~,~
