~,~,~,~,~,~,~,~,~,~
~,~,~,~,~,~,~,~,~,~
~,p,p,p,~,s,s,s,~,~
~,~,~,~,~,~,~,~,~,~
~,~,~,~,~,~,~,~,~,~
~,~,t,t,~,c,~,~,~,~
~,~,~,~,~,c,~,~,~,~
~,~,~,~,~,c,~,~,~,~
~,~,~,~,~,c,~,~,~,~
~,~,~,o,o,o,o,o,~,~
