~,~,~,~,~,~,~,~,~,~
~,~,~,~,~,~,t,t,~,~
~,~,~,o,o,o,~,~,~,~
~,~,~,~,~,~,~,~,s,~
~,~,~,~,~,~,~,c,s,~
~,~,~,~,~,~,~,c,s,~
~,~,~,~,~,~,~,c,~,~
~,~,~,~,~,~,~,c,~,~
~,~,p,p,p,p,~,~,~,~
~,~,~,~,~,~,~,~,~,~
