~,o,~,~,~,~,~,p,~,~
~,o,~,~,~,~,~,p,~,~
~,o,~,~,~,~,~,p,~,~
~,~,~,~,~,~,~,p,~,~
~,~,~,~,~,~,~,~,~,~
~,c,~,~,~,~,~,s,s,s
~,c,~,~,~,~,~,~,~,~
~,c,~,~,~,~,~,~,~,~
~,c,~,~,~,~,~,~,~,t
~,c,~,~,~,~,~,~,~,t
