p,~,p,p,p,p,o,~,~,~
~,~,~,~,~,~,o,~,~,~
~,~,~,~,~,~,o,~,~,~
t,~,~,~,~,~,~,~,~,c
t,~,~,~,~,~,~,~,~,c
~,~,~,~,~,~,~,~,~,c
~,~,s,s,s,~,~,~,~,c
~,~,~,~,~,~,~,~,~,~
~,~,~,~,~,~,~,~,~,~
~,~,~,~,~,~,~,~,~,~
