~,~,~,t,t,~,~,~,~,~
~,~,~,~,~,~,~,~,~,~
~,~,~,~,p,p,p,p,p,~
~,~,~,~,s,~,~,~,~,~
~,c,~,~,s,~,~,~,~,~
~,~,c,~,s,~,~,~,~,~
~,~,~,c,~,~,~,~,o,~
~,~,~,~,c,~,~,~,o,~
~,~,~,~,~,~,~,~,o,~
~,~,~,~,~,~,~,~,~,~
