s,s,s,~,~,~,~,~,~,~
~,~,~,~,~,~,~,~,~,~
~,~,~,~,~,~,~,~,~,~
~,t,~,~,~,~,~,~,~,~
~,t,~,~,o,o,o,~,~,~
~,t,~,~,~,~,~,~,~,~
~,t,~,~,~,~,~,~,c,~
~,t,~,~,~,~,~,~,c,~
~,~,~,~,~,~,~,~,c,p
~,~,~,~,~,~,~,~,c,p
