~,~,~,~,~,~,~,s,~,~
p,~,~,~,~,~,s,~,~,~
p,~,~,~,~,s,~,~,~,~
p,~,~,~,~,~,~,~,~,~
p,~,~,~,~,~,~,~,~,~
p,~,~,~,~,~,~,~,~,t
~,~,~,~,~,o,o,o,~,t
~,~,c,c,c,c,~,~,~,~
~,~,~,~,~,~,~,~,~,~
~,~,~,~,~,~,~,~,~,~
