~,~,~,~,~,~,t,~,~,~
~,~,~,~,~,~,t,~,~,~
~,~,~,~,~,~,~,~,~,~
~,~,p,~,~,~,~,~,~,~
~,~,p,~,~,~,~,~,~,~
~,~,p,~,~,~,s,s,s,~
~,o,p,~,~,~,~,~,~,~
~,o,c,c,c,c,~,~,~,~
~,o,~,~,~,~,~,~,~,~
~,~,~,~,~,~,~,~,~,~
