~,~,~,~,~,~,~,~,~,~
~,~,~,~,~,~,~,~,~,~
~,~,~,~,~,~,~,~,~,p
~,o,o,o,~,p,p,p,p,~
~,~,~,~,~,~,~,~,~,~
~,~,~,~,~,~,~,~,~,~
~,~,~,~,~,~,~,~,~,~
~,~,~,~,~,t,t,~,~,~
~,~,~,s,s,s,c,c,c,c
~,~,~,~,~,~,~,~,~,~
