~,~,~,~,~,~,~,~,~,~
~,~,~,~,~,~,~,~,~,~
~,~,~,~,~,~,~,c,~,~
~,~,t,~,~,~,c,~,~,p
~,~,t,~,~,c,~,~,~,p
~,~,~,~,c,~,~,~,~,p
~,~,~,~,~,~,~,~,~,p
s,s,s,~,~,~,~,~,~,p
~,~,~,~,~,~,~,~,~,~
~,~,~,o,o,o,~,~,~,~
