~,~,~,~,~,c,~,~,~,~
~,~,~,~,~,c,~,~,~,~
~,~,~,~,~,c,~,~,~,~
~,~,~,~,~,c,~,~,~,~
~,~,~,~,~,~,~,~,~,~
~,o,t,t,o,o,~,~,~,~
~,~,~,~,~,~,~,~,~,~
~,~,~,~,~,~,~,~,~,~
~,~,s,s,s,~,~,~,~,~
~,~,p,p,p,p,p,~,~,~
