~,~,~,~,c,~,~,~,~,~
~,~,~,~,c,~,~,~,~,~
~,~,~,~,c,~,~,~,~,~
~,~,~,~,c,~,~,p,~,s
~,~,~,t,~,~,~,p,~,s
~,~,~,t,~,~,~,p,~,s
~,~,~,~,~,~,~,p,o,s
~,~,~,~,~,~,~,p,o,~
~,~,~,~,~,~,~,~,o,~
~,~,~,~,~,~,~,~,~,~
