~,~,s,~,~,~,~,~,~,~
~,~,s,~,~,~,~,~,~,~
~,~,s,~,~,~,~,~,t,t
~,~,~,~,~,~,~,~,p,~
~,~,~,c,c,c,c,~,p,~
~,~,~,~,~,~,~,~,p,~
~,~,~,~,~,~,~,~,p,~
~,~,~,~,~,~,~,~,p,o
~,~,~,~,~,~,~,~,~,o
~,~,~,~,~,~,~,~,~,o
