~,~,~,~,~,~,~,~,~,~
~,~,~,~,~,~,~,~,~,~
~,~,~,~,~,~,~,~,~,~
~,~,~,~,~,~,~,~,~,~
~,~,~,~,~,~,~,~,~,s
~,~,~,~,~,~,~,~,~,s
~,p,p,p,p,p,~,~,~,s
~,~,~,c,c,c,c,~,~,~
~,~,~,~,~,~,~,~,~,~
~,o,o,o,t,t,~,~,~,~
