~,~,~,~,~,~,~,~,~,~
~,~,~,~,~,~,~,~,~,~
~,~,~,~,c,~,~,~,~,~
~,~,~,~,c,~,~,~,~,~
~,~,o,o,c,o,~,~,~,~
~,~,~,~,c,~,~,~,~,~
~,~,~,~,~,~,~,~,~,~
~,~,t,t,s,s,s,~,~,~
~,~,p,p,p,p,p,~,~,~
~,~,~,~,~,~,~,~,~,~
