~,s,~,~,~,~,~,~,~,~
~,s,~,~,~,~,~,~,~,~
~,s,~,~,~,~,~,~,~,~
~,t,~,~,~,~,~,~,~,~
~,t,~,~,~,~,~,~,~,~
~,~,~,~,~,~,~,~,~,~
~,~,~,~,~,~,~,~,~,~
~,~,~,~,~,~,~,~,~,~
~,~,p,p,p,p,p,c,~,~
o,o,o,~,~,~,c,~,c,c
