~,~,~,~,~,~,~,~,~,~
~,~,~,~,~,~,~,~,c,~
~,~,~,s,s,s,s,s,c,~
~,~,~,~,~,~,~,~,c,~
~,~,~,~,~,~,~,~,c,~
~,~,~,~,~,~,~,~,~,~
~,~,~,~,~,~,~,~,p,~
~,~,~,~,~,o,~,~,p,~
~,~,~,~,~,o,~,~,p,t
~,~,~,~,~,o,~,~,~,t
