~,~,~,~,~,~,~,~,~,~
~,~,~,c,~,~,~,~,~,~
~,~,~,c,o,~,x,x,~,~
~,~,~,c,o,~,p,~,~,~
~,~,~,c,o,~,p,~,~,~
~,~,~,~,~,~,p,~,~,~
~,~,~,~,~,~,p,~,~,~
~,~,~,~,~,~,p,~,~,~
~,~,~,~,~,s,s,s,~,~
~,~,~,~,~,~,~,~,~,~
