~,t,~,~,~,~,~,~,~,~
~,~,~,~,~,~,~,~,~,~
~,~,~,~,o,o,o,~,~,~
~,~,~,~,~,~,~,c,~,~
~,~,~,~,~,~,~,c,p,~
~,~,~,~,~,s,~,c,p,~
~,~,~,~,~,s,~,c,p,~
~,~,~,~,~,s,~,~,p,~
~,~,~,~,~,~,~,~,p,~
~,~,~,~,~,~,~,~,~,~
