~,~,~,~,~,~,~,~,~,~
~,~,~,~,~,~,t,~,~,~
~,~,~,~,~,~,t,~,~,~
c,p,~,~,~,~,t,~,s,~
c,p,~,~,~,~,~,~,s,~
c,p,~,~,~,~,~,~,s,~
c,p,~,~,~,~,~,~,~,~
~,p,~,~,~,~,~,~,~,~
~,~,~,~,~,~,~,~,~,~
~,~,~,~,~,o,o,o,~,~
