~,p,~,~,~,~,~,~,~,s
~,p,~,~,~,~,~,~,~,s
~,p,~,~,~,~,~,~,~,s
o,p,~,~,~,~,~,~,~,~
o,p,~,~,~,~,~,~,~,~
o,p,~,~,~,~,~,~,~,~
~,~,~,~,~,c,c,c,c,~
~,~,~,~,~,~,~,~,~,~
~,~,~,~,~,~,t,~,~,~
~,~,~,~,~,~,t,~,~,~
