~,~,~,~,~,~,~,~,~,~
~,~,~,~,~,c,c,c,c,~
~,~,~,~,~,~,~,~,~,~
~,~,~,~,~,~,~,~,~,~
~,t,t,~,~,~,p,~,~,~
~,~,~,~,~,~,p,~,~,~
~,~,~,~,~,~,p,o,~,~
~,~,~,~,~,~,p,~,o,~
~,~,~,~,~,~,p,~,~,o
~,~,~,~,~,~,s,s,s,~
