~,~,~,~,~,~,~,~,~,~
~,~,~,~,~,~,~,~,~,~
~,~,~,~,~,~,~,~,c,~
~,~,~,~,~,~,~,~,c,t
~,~,o,~,~,~,~,~,c,t
~,~,o,~,~,~,~,~,c,~
~,s,s,s,p,p,p,p,p,~
~,~,o,~,~,~,~,~,~,~
~,~,~,~,~,~,~,~,~,~
~,~,~,~,~,~,~,~,~,~
