~,~,~,c,c,c,c,c,~,~
p,p,p,p,~,~,t,~,~,~
~,~,~,~,~,~,t,~,~,~
~,~,~,~,~,~,~,~,~,~
~,~,~,~,~,~,~,~,~,s
~,~,~,~,~,~,~,~,~,s
~,~,~,~,~,~,~,~,~,s
~,~,~,~,~,~,~,~,~,~
~,~,~,~,~,~,~,~,~,~
~,~,~,~,~,~,~,o,o,o
