~,~,p,p,p,p,p,~,~,~
~,~,~,~,~,~,~,~,~,~
~,~,o,~,~,~,~,~,~,~
~,~,o,~,~,~,~,c,~,~
~,~,o,~,~,~,c,~,~,~
~,~,~,~,~,c,~,~,~,~
~,~,~,~,c,~,~,~,~,~
~,~,~,~,~,~,~,~,~,~
~,~,~,~,~,~,~,~,~,~
t,t,s,s,s,~,~,~,~,~
