~,~,~,~,~,~,~,~,~,~
~,~,~,~,~,o,t,t,~,~
~,~,~,~,~,o,s,~,p,~
~,~,~,~,~,c,s,~,p,~
~,~,~,~,~,c,s,~,p,~
~,~,~,~,~,c,~,~,p,~
~,~,~,~,~,c,~,~,p,~
~,~,~,~,~,o,~,~,~,~
~,~,~,~,~,~,~,~,~,~
~,~,~,~,~,~,~,~,~,~
