~,~,~,~,~,~,~,~,~,~
~,~,~,~,~,~,~,~,~,~
~,~,~,~,~,~,~,~,~,~
~,~,~,~,~,~,~,~,~,~
~,~,~,~,~,s,~,c,p,~
~,~,~,~,~,s,t,c,p,~
~,o,o,o,~,s,t,c,p,~
~,~,~,~,~,s,~,~,p,~
~,~,~,~,~,~,~,~,p,~
~,~,~,~,~,~,~,~,~,~
