~,~,~,p,c,c,c,c,~,~
~,~,~,p,~,~,~,~,~,~
~,~,o,p,o,o,~,~,~,~
~,~,~,p,~,~,~,~,~,~
~,~,~,p,~,~,~,~,~,~
~,~,~,t,~,~,~,~,~,~
~,~,~,t,~,~,s,~,~,~
~,~,~,~,~,~,s,~,~,~
~,~,~,~,~,~,s,~,~,~
~,~,~,~,~,~,~,~,~,~
