~,~,~,~,~,~,~,~,~,~
~,~,~,~,~,c,c,c,c,~
~,~,~,~,~,s,~,~,~,~
~,~,~,~,~,s,~,~,~,~
~,~,o,~,~,s,~,~,~,~
~,~,o,~,~,~,~,~,~,~
~,~,o,~,~,~,t,t,~,~
~,~,~,~,~,~,~,~,~,~
~,x,x,x,x,x,~,~,~,~
~,~,~,~,~,~,~,~,~,~
