~,~,~,~,~,~,~,~,~,~
~,~,~,s,s,s,~,~,~,~
p,p,p,p,p,~,~,~,~,~
~,~,~,~,~,~,~,~,~,~
~,~,~,~,~,~,~,~,c,~
t,t,~,~,~,~,~,~,c,~
~,o,~,~,~,~,~,~,c,~
~,o,~,~,~,~,~,~,c,~
~,o,~,~,~,~,~,~,~,~
~,~,~,~,~,~,~,~,~,~
