~,~,~,~,~,~,~,~,~,~
~,~,~,~,~,~,~,~,~,~
~,~,~,~,~,~,~,~,~,~
~,~,~,~,~,~,~,~,~,o
~,~,~,s,~,~,p,~,~,o
~,~,~,c,c,c,p,c,~,o
~,~,~,s,~,~,p,~,~,~
~,~,~,s,~,~,p,~,~,~
~,~,~,~,~,~,p,~,~,~
~,~,~,~,t,t,~,~,~,~
