~,~,~,~,~,~,~,~,~,~
~,~,~,~,~,~,~,~,~,~
~,~,t,t,~,~,~,~,~,o
~,~,~,~,~,~,~,~,~,o
c,c,c,c,~,~,~,~,~,o
~,~,~,~,~,~,~,~,~,~
~,~,~,~,~,~,~,~,~,~
p,p,p,p,p,p,~,~,~,~
~,~,~,~,s,s,s,~,~,~
~,~,~,~,~,~,~,~,~,~
