~,o,~,~,~,~,~,~,~,~
~,o,~,~,~,~,~,~,~,~
~,o,~,~,~,~,~,~,~,p
~,~,s,s,s,~,~,~,~,p
~,~,~,t,~,~,~,~,~,p
~,~,~,t,~,~,~,~,~,p
~,~,~,~,~,~,~,~,p,~
~,~,~,~,~,~,~,~,~,~
c,c,c,c,~,~,~,~,~,~
~,~,~,~,~,~,~,~,~,~
