~,~,~,~,~,~,~,~,~,~
~,~,~,~,~,~,~,~,~,~
~,~,~,~,~,~,~,~,~,~
~,~,~,~,~,~,~,~,~,~
t,t,t,~,~,s,s,s,~,~
~,~,~,~,~,~,~,~,~,~
~,~,~,p,p,p,p,p,~,o
~,~,~,~,~,~,~,~,~,o
~,c,c,c,c,~,~,~,~,~
~,~,~,~,~,~,~,~,~,~
