~,~,s,s,~,s,~,~,p,t
~,~,~,~,~,~,~,~,p,t
~,~,~,~,~,~,~,c,p,~
~,~,~,~,~,~,~,c,p,~
~,~,~,~,~,~,~,c,p,~
~,~,~,~,~,~,o,c,~,~
~,~,~,~,~,~,o,~,~,~
~,~,~,~,~,~,o,~,~,~
~,~,~,~,~,~,~,~,~,~
~,~,~,~,~,~,~,~,~,~
