~,~,~,~,~,~,~,~,~,~
~,~,~,~,~,~,~,~,~,~
~,~,~,~,~,~,~,~,~,~
o,o,o,~,~,~,~,~,~,~
~,~,~,~,~,~,~,~,~,~
~,~,c,c,c,c,~,~,~,~
~,~,~,~,~,~,~,~,~,~
~,~,~,~,t,p,p,p,p,p
~,~,~,~,t,s,~,~,~,~
~,~,~,~,t,s,~,~,~,~
