~,~,~,~,~,~,~,~,~,~
~,~,~,~,~,~,~,~,~,~
~,~,~,~,~,~,~,~,~,~
~,~,~,~,s,~,~,~,~,~
~,~,~,p,p,p,p,p,~,~
~,~,c,~,s,~,~,~,~,t
~,~,c,~,s,o,~,~,~,t
~,~,c,~,~,o,~,~,~,~
~,~,c,~,~,o,~,~,~,~
~,~,~,~,~,~,~,~,~,~
