~,~,~,~,~,~,~,~,~,~
~,~,~,~,~,~,~,~,~,~
~,~,~,~,~,~,~,~,~,~
~,~,~,~,~,~,~,~,~,~
~,~,~,o,~,~,~,~,~,~
~,~,o,~,~,~,c,~,~,~
~,o,~,~,~,~,c,~,~,~
~,~,~,~,~,s,c,~,~,~
~,~,~,~,~,s,c,t,~,~
p,p,p,p,p,s,~,t,~,~
