~,~,~,~,~,~,~,~,~,~
~,~,~,~,~,~,~,~,~,~
~,~,~,~,~,~,~,~,~,o
~,~,~,~,~,~,~,~,~,o
~,~,~,~,~,~,~,c,~,o
p,p,p,p,p,~,~,c,~,~
~,~,~,~,~,~,~,c,~,~
~,~,s,s,s,s,~,c,~,~
~,~,~,t,~,~,~,~,~,~
~,~,~,t,~,~,~,~,~,~
