t,t,~,~,~,~,~,~,~,~
c,c,c,c,~,~,~,~,~,~
~,~,~,~,~,~,~,~,s,~
~,~,~,o,~,~,~,~,s,~
~,~,~,o,~,~,~,~,s,~
~,~,~,o,~,~,~,~,~,p
~,~,~,~,~,~,~,~,~,p
~,~,~,~,~,~,~,~,~,p
~,~,~,~,~,~,~,~,~,p
~,~,~,~,~,~,~,~,~,~
