~,~,~,~,~,~,~,~,~,~
~,~,~,~,~,~,~,~,~,~
~,~,~,~,~,~,~,~,~,~
~,~,p,~,~,~,~,~,~,~
~,~,~,p,~,~,o,o,o,~
~,~,~,t,p,c,c,c,c,~
~,~,~,t,~,p,~,~,~,~
~,~,~,~,~,~,p,~,~,~
~,~,~,~,~,~,~,s,s,s
~,~,~,~,~,~,~,~,~,~
