p,p,p,p,p,~,~,~,~,~
~,~,~,~,~,~,~,~,~,~
~,~,~,~,~,~,~,~,~,~
~,~,~,c,c,c,c,~,~,~
~,~,~,~,~,~,~,~,~,~
~,o,~,~,~,~,~,~,~,~
~,o,~,~,~,~,~,~,~,~
s,s,s,~,~,~,~,~,~,~
~,o,~,~,~,~,~,t,t,~
~,~,~,~,~,~,~,~,~,~
