~,~,~,~,~,~,~,~,~,p
~,o,~,~,~,~,~,~,~,p
~,o,~,~,~,~,~,~,~,p
~,o,~,s,~,~,~,~,~,p
~,~,~,s,~,~,~,t,~,p
~,~,~,s,~,~,~,t,~,~
~,~,~,~,~,~,~,~,~,~
~,~,~,~,~,~,~,~,~,~
~,~,c,c,c,c,~,~,~,~
~,~,~,~,~,~,~,~,~,~
