~,~,~,o,o,o,c,c,c,c
~,s,s,s,~,~,~,~,~,~
~,~,~,~,~,~,~,~,~,~
~,~,~,~,~,~,~,~,~,p
~,~,~,~,~,~,~,~,~,p
~,~,~,~,~,~,~,~,~,p
~,~,~,~,~,~,~,~,~,p
~,~,~,~,~,t,t,~,~,p
~,~,~,~,~,~,~,~,~,~
~,~,~,~,~,~,~,~,~,~
