~,~,~,~,~,~,~,~,~,p
~,~,~,~,~,~,~,~,~,p
~,~,~,~,~,~,s,~,~,p
~,~,o,o,o,o,s,~,~,p
~,~,~,~,~,~,s,~,~,p
~,t,~,~,~,~,~,~,~,~
~,t,c,~,~,~,~,~,~,~
~,~,c,~,~,~,~,~,~,~
~,~,c,~,~,~,~,~,~,~
~,~,~,~,~,~,~,~,~,~
