~,~,~,~,~,~,~,p,~,~
~,~,~,~,~,~,~,p,~,~
o,o,t,o,~,~,~,p,~,c
~,~,t,~,~,~,~,p,~,c
s,s,s,~,~,~,~,p,~,c
~,~,~,~,~,~,~,~,~,c
~,~,~,~,~,~,~,~,~,~
~,~,~,~,~,~,~,~,~,~
~,~,~,~,~,~,~,~,~,~
~,~,~,~,~,~,~,~,~,~
