~,~,~,~,~,~,~,~,~,~
~,~,~,~,o,~,~,~,~,~
~,~,~,~,o,s,s,s,~,~
~,~,~,~,o,~,~,~,~,~
~,~,~,~,~,~,~,p,~,~
~,~,~,~,~,~,~,p,~,~
~,~,~,~,~,~,~,p,~,~
~,c,c,c,c,~,~,p,~,~
t,t,~,~,~,~,~,p,~,~
~,~,~,~,~,~,~,~,~,~
