~,~,~,~,~,~,~,~,~,~
c,c,c,c,~,~,~,~,~,p
~,~,~,~,o,t,t,t,~,p
s,s,~,~,o,~,~,~,~,p
~,~,~,~,o,~,~,~,~,p
~,~,~,~,~,~,~,~,~,p
~,~,~,~,~,~,~,~,~,~
~,~,~,~,~,~,~,~,~,~
~,~,~,~,~,~,~,~,~,~
~,~,~,~,~,~,~,~,~,~
