~,~,~,~,~,~,o,~,~,~
~,~,~,~,~,~,o,~,~,~
s,s,s,~,~,~,o,~,~,t
~,~,~,~,~,~,o,~,p,t
~,~,~,~,~,c,~,~,p,~
~,~,~,~,~,c,~,~,p,~
~,~,~,~,~,c,~,~,p,~
~,~,~,~,~,c,~,~,p,~
~,~,~,~,~,~,~,~,~,~
~,~,~,~,~,~,~,~,~,~
