~,~,~,~,~,~,~,~,~,~
~,~,~,~,~,~,~,~,~,c
~,~,~,~,~,~,~,~,~,c
~,~,~,~,~,~,~,~,~,c
~,~,~,~,~,~,~,~,o,c
~,~,~,~,t,t,~,~,o,~
s,s,p,p,p,p,p,s,o,~
~,~,~,~,~,~,~,~,~,~
~,~,~,~,~,~,~,~,~,~
~,~,~,~,~,~,~,~,~,~
