s,~,t,t,~,~,~,~,~,~
s,~,o,~,~,~,~,~,~,~
s,~,o,~,~,~,~,~,~,~
~,~,o,~,~,~,~,~,~,~
~,~,~,~,~,~,~,~,~,~
~,~,~,p,p,p,p,p,~,~
~,~,~,~,~,~,~,~,~,~
~,~,~,~,~,c,c,c,c,~
~,~,~,~,~,~,~,~,~,~
~,~,~,~,~,~,~,~,~,~
