~,~,~,~,~,~,~,~,~,~
~,~,~,~,~,~,~,~,~,~
o,~,~,~,~,~,~,~,~,~
o,~,~,~,~,~,~,~,~,~
o,~,~,~,~,~,~,~,~,~
~,~,~,~,~,~,~,t,t,t
~,~,~,~,p,p,p,p,p,~
~,~,~,~,c,c,c,c,~,~
~,~,~,~,~,~,~,~,~,~
~,~,s,s,s,~,~,~,~,~
