~,~,~,~,~,~,~,~,~,~
~,~,~,~,~,~,~,~,~,c
o,~,~,~,~,t,t,~,~,c
o,~,~,~,~,~,~,~,~,c
o,~,~,~,~,~,~,~,~,c
~,~,~,~,~,~,s,~,~,c
~,~,~,~,~,~,s,~,~,~
p,p,p,p,p,~,s,~,~,~
~,~,~,~,~,~,~,~,~,~
~,~,~,~,~,~,~,~,~,~
