~,~,~,o,o,o,~,x,~,~
s,~,~,~,~,~,~,x,~,~
s,~,c,c,c,c,~,x,~,~
s,~,~,~,~,~,~,x,~,~
~,~,~,~,~,~,~,x,~,~
~,~,~,~,~,~,~,~,~,~
~,~,~,~,~,~,~,~,~,~
~,t,~,~,~,~,~,~,~,~
~,t,~,~,~,~,~,~,~,~
~,~,~,~,~,~,~,~,~,~
