~,~,c,c,c,c,~,~,~,~
~,~,~,t,~,~,~,~,~,~
o,~,~,t,~,~,~,~,~,~
o,~,~,~,~,~,~,~,~,~
o,~,~,~,~,~,~,~,~,~
~,~,~,~,~,~,~,~,~,s
~,~,~,~,~,~,~,~,~,s
~,~,~,~,~,~,~,~,~,s
~,~,~,~,~,~,~,~,~,~
~,~,~,~,x,x,x,x,x,~
