~,~,~,~,~,~,~,~,~,~
~,~,~,~,~,~,~,~,~,~
~,~,~,~,~,~,c,c,c,c
~,~,~,~,~,~,~,~,~,~
~,~,~,~,~,~,~,~,~,~
p,p,p,p,p,~,~,~,~,~
~,~,~,~,~,~,~,~,~,~
t,~,~,~,~,~,~,~,o,~
~,t,~,~,~,~,~,~,o,~
~,~,~,s,s,s,~,~,o,~
