~,~,~,~,~,~,~,~,~,~
~,~,~,~,~,~,t,~,~,~
~,~,~,~,~,t,~,~,~,~
~,~,~,~,~,~,~,~,~,~
~,~,~,~,~,~,~,o,o,o
~,~,~,~,~,~,s,s,s,~
~,~,~,p,p,p,p,p,~,~
~,~,~,~,~,~,~,~,~,~
~,c,c,c,c,~,~,~,~,~
~,~,~,~,~,~,~,~,~,~
