~,~,~,~,~,~,~,~,~,~
~,~,~,~,~,~,~,s,~,~
~,~,o,o,o,~,p,s,t,~
~,~,~,~,~,~,p,s,t,~
~,~,~,~,~,~,~,~,t,~
~,~,~,~,~,~,~,~,t,~
~,~,~,~,~,~,~,~,t,~
~,~,~,~,~,~,~,~,~,~
~,~,~,c,c,c,c,~,~,~
~,~,~,~,~,~,~,~,~,~
