t,~,~,~,~,~,~,~,~,~
t,~,~,~,~,~,~,~,~,~
x,~,~,~,~,~,~,~,~,~
x,~,~,~,~,~,~,~,~,~
x,~,~,~,~,~,~,~,~,~
x,~,~,~,~,~,~,~,~,~
o,~,~,~,~,~,~,~,~,~
o,~,~,~,~,~,~,~,~,~
o,~,~,~,p,p,p,p,p,~
~,~,~,~,~,s,s,s,~,~
