~,~,~,~,~,o,~,~,~,~
~,~,~,~,~,o,~,~,~,~
~,~,~,~,~,o,~,~,~,~
~,~,~,~,~,~,~,~,~,~
~,~,~,~,~,~,~,~,c,~
~,~,~,~,~,~,~,~,c,~
t,~,~,~,~,~,~,~,c,~
t,p,p,p,p,p,~,~,c,~
s,s,s,~,~,~,~,~,~,~
~,~,~,~,~,~,~,~,~,~
