~,s,s,s,~,~,~,~,~,~
~,~,~,~,~,~,~,~,~,~
~,~,~,~,~,~,~,t,~,~
~,~,~,~,~,~,~,t,~,~
~,~,~,~,x,x,x,x,~,p
~,~,~,~,~,~,~,~,~,p
~,o,~,~,~,~,~,~,~,p
~,o,~,~,~,~,~,~,~,p
~,o,~,~,~,~,~,~,~,p
~,~,~,~,~,~,~,~,~,~
