~,~,~,~,~,~,~,~,~,~
~,~,~,~,~,~,~,~,~,~
~,~,~,~,~,~,~,~,~,~
~,~,~,t,t,~,o,c,s,~
~,~,~,~,~,~,o,c,s,~
~,~,~,~,~,~,o,c,s,~
~,~,~,~,~,~,~,c,~,~
~,~,~,~,~,~,~,~,~,~
~,~,x,x,x,x,x,~,~,~
~,~,~,~,~,~,~,~,~,~
