~,~,~,~,~,~,~,~,~,~
~,~,~,~,~,~,~,~,~,~
~,~,~,~,~,~,~,~,~,~
~,~,~,~,~,p,p,p,p,p
~,~,~,~,~,c,~,s,s,s
~,~,~,~,~,c,~,~,~,~
~,~,t,~,~,c,~,~,~,~
~,~,t,~,~,c,~,~,~,~
~,~,~,o,o,o,~,~,~,~
~,~,~,~,~,~,~,~,~,~
