~,~,~,~,~,~,~,~,~,~
~,~,~,~,~,~,~,~,~,~
~,~,~,~,~,p,p,p,p,p
~,~,~,o,~,~,~,s,s,s
~,~,~,o,~,~,~,~,c,~
~,~,~,o,~,~,~,~,c,~
~,~,~,~,~,~,~,~,c,~
~,~,~,~,~,~,~,~,~,t
~,~,~,~,~,~,~,~,c,t
~,~,~,~,~,~,~,~,~,~
