~,~,~,~,~,~,~,~,~,~
~,~,~,~,~,~,~,~,~,~
~,~,~,~,~,~,~,~,~,~
~,~,~,~,~,~,~,~,~,~
~,~,~,~,~,s,~,~,~,~
~,~,~,~,~,s,~,~,~,~
~,~,~,~,t,s,~,~,~,~
~,~,~,o,t,o,o,~,~,~
c,c,p,p,p,p,p,c,c,~
~,~,~,~,~,~,~,~,~,~
