~,~,~,~,~,~,~,~,~,~
~,~,~,~,~,~,~,~,~,~
~,~,~,~,~,~,~,~,~,t
~,~,~,~,~,~,~,c,t,~
~,~,p,p,p,p,p,c,~,~
~,~,~,~,~,~,~,c,~,~
~,~,~,~,~,~,~,c,o,~
~,s,s,s,~,~,~,~,o,~
~,~,~,~,~,~,~,~,o,~
~,~,~,~,~,~,~,~,~,~
