~,~,~,~,p,p,p,p,p,~
t,~,~,~,~,~,~,~,~,~
~,t,~,~,~,~,~,~,~,~
~,~,~,~,~,~,~,s,s,s
~,~,~,~,~,~,~,~,~,~
~,~,~,~,~,~,~,o,o,o
~,~,~,~,~,~,~,~,~,~
c,c,c,c,~,~,~,~,~,~
~,~,~,~,~,~,~,~,~,~
~,~,~,~,~,~,~,~,~,~
