~,~,~,o,o,~,~,~,~,~
~,t,t,~,~,o,~,~,~,~
c,c,c,c,~,~,~,~,~,~
~,~,~,~,~,p,~,~,~,~
~,~,~,~,~,p,~,~,~,~
~,~,~,~,~,p,~,~,~,~
~,~,~,~,~,p,~,~,~,~
~,~,~,~,~,p,~,s,~,~
~,~,~,~,~,~,~,s,~,~
~,~,~,~,~,~,~,s,~,~
