~,p,p,p,p,p,~,~,~,~
~,~,~,~,~,~,~,~,~,~
~,~,~,~,~,~,~,~,~,~
~,~,t,~,~,~,~,~,~,~
~,~,t,~,~,~,~,~,~,~
~,~,~,~,~,~,~,~,~,s
~,~,o,o,o,~,~,~,~,s
~,~,~,c,c,c,c,~,~,s
~,~,~,~,~,~,~,~,~,~
~,~,~,~,~,~,~,~,~,~
