~,~,~,~,~,~,~,~,~,~
s,~,~,~,~,~,~,~,~,~
s,~,~,~,~,~,~,~,~,~
~,~,~,~,~,~,~,t,~,~
~,o,~,~,~,~,~,t,~,~
~,o,p,~,~,~,~,t,~,~
~,o,p,~,~,~,~,c,~,~
~,~,p,~,~,~,~,c,~,~
~,~,p,~,~,~,~,c,~,~
~,~,p,~,~,~,~,c,~,~
