~,~,~,~,~,~,t,~,~,~
~,~,~,~,~,~,t,~,~,~
~,~,~,~,~,~,p,~,~,~
~,~,~,~,~,~,p,~,~,~
~,~,~,~,~,~,p,~,~,~
~,~,~,~,~,~,p,~,~,o
~,~,~,~,~,~,~,~,~,o
s,s,s,~,~,~,~,~,~,o
~,c,c,c,c,c,~,~,~,~
~,~,~,~,~,~,~,~,~,~
