~,~,~,~,~,~,~,c,~,~
~,~,~,~,~,~,~,c,~,~
~,~,~,~,~,~,~,c,~,~
~,p,p,p,p,p,~,c,~,~
~,~,o,~,t,t,~,~,~,~
~,~,o,~,~,~,~,~,~,~
~,~,o,~,~,~,~,~,~,~
~,~,~,~,~,~,~,~,~,~
~,~,~,~,~,x,x,x,~,~
~,~,~,~,~,~,~,~,~,~
