~,~,~,~,~,~,~,~,~,~
~,~,~,~,~,~,~,t,t,~
~,~,~,~,~,~,~,~,~,~
~,~,~,~,~,~,~,~,~,~
p,p,p,p,p,~,~,~,~,~
~,~,~,~,~,~,~,~,~,~
~,~,~,~,~,~,~,~,~,~
o,~,~,~,~,~,~,~,~,s
~,o,~,~,~,~,~,~,~,s
~,~,o,~,~,c,c,c,c,s
