~,~,~,~,~,~,~,~,~,~
~,~,~,~,c,~,~,~,~,~
~,~,~,~,c,~,~,~,~,~
p,~,~,~,c,~,~,~,~,~
p,~,~,~,c,~,~,~,~,~
p,~,~,~,s,s,s,~,~,~
p,~,~,~,~,~,~,~,t,t
p,~,~,~,~,~,~,~,~,~
~,~,~,~,~,~,~,~,~,~
o,o,o,~,~,~,~,~,~,~
