~,~,~,~,~,~,~,~,c,~
~,~,~,~,~,~,o,~,c,~
~,~,~,~,~,~,o,~,c,~
~,~,~,~,~,~,o,~,c,~
~,~,~,~,~,~,~,~,p,~
~,~,~,~,~,~,s,~,p,~
~,~,~,~,~,~,s,~,p,~
~,~,~,~,~,~,s,~,p,~
~,~,~,~,~,~,~,~,p,~
~,~,~,x,x,~,~,~,~,~
