~,~,~,~,~,~,~,~,~,~
~,~,~,~,~,~,c,~,~,~
~,~,t,t,~,~,c,~,~,~
~,~,~,~,~,~,c,~,~,~
~,~,~,~,~,s,c,s,s,~
~,~,~,~,~,~,~,~,~,~
~,~,~,~,~,~,~,~,~,~
~,~,p,p,p,p,p,~,~,~
~,~,~,~,o,o,o,~,~,~
~,~,~,~,~,~,~,~,~,~
