t,~,~,~,~,~,~,~,~,~
t,o,~,~,~,~,~,~,~,~
~,o,~,~,~,~,~,~,~,~
~,o,~,~,~,~,~,~,~,~
~,~,~,~,~,~,~,~,~,~
~,~,~,~,~,~,~,~,~,~
~,~,~,~,~,~,s,s,s,~
~,~,~,c,~,~,~,~,~,~
~,~,c,~,c,c,~,~,~,~
~,~,~,p,p,p,p,p,~,~
