~,~,~,~,~,~,~,~,~,~
~,~,~,~,~,~,~,~,~,p
~,~,c,c,c,c,~,~,~,p
~,~,~,~,~,~,o,~,~,p
~,~,~,~,~,~,o,~,~,p
~,x,x,~,~,~,o,~,~,p
~,~,~,~,~,~,~,~,~,~
~,~,~,~,~,~,~,~,~,~
~,~,~,~,~,~,~,~,~,~
~,~,~,s,s,s,~,~,~,~
