~,~,~,~,t,~,~,~,~,~
~,~,~,~,t,~,~,~,~,~
~,~,~,~,o,~,~,~,~,~
~,~,~,~,o,~,~,~,~,~
~,c,~,~,o,~,~,~,s,~
~,c,~,~,o,~,~,~,s,~
~,c,~,~,~,~,~,~,s,~
~,c,~,~,~,~,~,~,~,~
p,p,p,p,p,~,~,~,~,~
~,~,~,~,~,~,~,~,~,~
