~,~,~,~,~,~,~,~,~,~
t,t,~,~,~,~,~,~,~,~
~,~,~,~,~,~,~,~,~,~
~,~,~,~,~,~,~,~,~,~
~,~,~,c,c,c,c,~,~,~
~,~,~,~,~,~,~,~,~,s
~,~,~,~,~,~,~,p,~,s
~,~,~,~,~,~,~,p,~,s
~,o,o,o,o,o,~,p,~,~
~,~,~,~,~,~,~,~,~,~
