~,~,~,~,~,~,x,~,~,~
~,~,~,~,~,~,x,~,~,~
~,~,~,~,~,~,~,~,~,~
~,~,~,~,~,~,s,~,~,~
~,~,p,~,~,~,s,~,~,c
~,~,p,o,o,o,s,~,~,c
~,~,p,~,~,~,~,~,~,c
~,~,p,~,~,~,~,~,~,c
~,~,p,~,~,~,~,~,~,~
~,~,~,~,~,~,~,~,~,~
