~,~,~,~,~,~,~,~,~,~
~,~,~,~,~,~,~,~,~,~
~,~,~,o,o,o,~,~,~,~
~,~,~,~,~,~,~,~,~,~
~,~,~,~,~,~,~,~,~,~
~,~,~,~,~,~,~,~,~,~
~,~,~,~,~,c,c,c,~,c
s,~,~,~,~,~,~,~,~,~
s,~,~,~,~,~,~,~,~,~
s,t,t,~,~,p,p,p,p,p
