o,~,~,~,~,~,~,~,~,~
o,~,~,~,~,~,~,~,~,~
o,~,~,~,~,~,~,~,~,~
~,~,~,~,~,~,~,~,~,~
~,~,~,~,~,~,~,~,~,~
~,~,t,t,~,~,~,~,~,s
~,~,~,~,~,~,~,~,~,s
~,~,c,c,c,c,~,~,~,s
~,~,~,p,p,p,p,p,~,s
~,~,~,~,~,~,~,~,~,~
