~,~,t,t,~,~,~,~,~,~
~,~,~,~,~,~,~,~,~,o
~,~,~,~,~,~,~,~,~,o
s,~,~,p,~,~,~,~,~,o
s,~,~,p,~,~,~,~,~,~
s,~,~,p,~,~,~,~,~,~
~,~,~,p,~,~,~,~,~,~
~,~,~,p,~,~,~,~,~,~
~,~,~,~,~,~,c,c,c,~
~,~,~,~,~,c,~,~,~,~
