~,~,~,~,~,~,~,~,~,~
~,~,~,~,~,~,~,~,~,~
~,~,~,~,~,~,~,~,~,o
~,~,~,~,~,p,~,~,o,~
~,~,~,~,~,p,~,o,~,c
~,~,~,~,~,p,~,~,~,c
~,~,~,~,~,p,~,~,~,c
t,s,~,~,~,p,~,~,~,c
t,s,~,~,~,~,~,~,~,~
~,s,~,~,~,~,~,~,~,~
