~,~,p,~,~,~,~,~,~,~
~,~,p,~,~,~,~,~,~,~
~,~,p,~,~,~,~,~,~,~
~,~,p,o,~,~,~,~,~,~
~,~,p,o,~,~,~,~,~,~
~,~,~,~,t,t,t,~,~,s
~,~,~,~,~,~,~,~,~,s
~,~,~,~,~,~,~,~,~,s
c,c,c,c,~,~,~,~,~,~
~,~,~,~,~,~,~,~,~,~
