~,~,~,~,~,~,~,~,~,~
~,~,~,~,~,~,~,~,~,~
~,~,~,~,~,~,~,~,~,~
~,~,~,~,~,~,~,~,~,~
~,s,~,p,p,p,p,p,~,~
~,s,~,~,~,~,~,~,~,~
o,s,~,~,~,~,~,~,~,~
o,~,~,~,~,~,c,c,c,c
o,~,~,~,t,t,~,~,~,~
~,~,~,~,~,~,~,~,~,~
