~,~,~,~,~,~,~,~,~,~
~,~,~,~,~,p,~,~,~,~
~,~,~,~,~,p,~,~,~,~
~,~,~,~,~,p,~,~,~,~
~,~,~,~,~,p,t,t,~,~
~,~,~,~,~,p,~,~,~,~
~,x,x,x,x,~,~,~,~,~
~,~,~,~,~,~,~,~,s,~
~,o,o,o,~,~,~,~,s,~
~,~,~,~,~,~,~,~,s,~
