~,~,~,~,~,~,~,~,~,~
~,~,~,~,~,~,~,~,~,~
~,~,~,~,~,~,~,~,~,~
t,t,~,~,~,~,~,~,~,~
~,~,~,~,~,~,~,~,~,~
~,~,~,s,~,~,~,~,p,~
~,~,~,s,~,~,~,~,p,~
~,~,~,s,~,~,~,~,p,~
~,~,~,o,o,o,o,~,p,~
~,~,~,c,c,c,~,~,p,~
