~,~,~,~,t,t,~,~,~,~
~,x,x,x,x,~,~,~,~,~
s,s,s,~,~,~,p,~,~,~
~,o,o,o,~,~,p,~,~,~
~,~,~,~,~,~,p,~,~,~
~,~,~,~,~,~,p,~,~,~
~,~,~,~,~,~,p,~,~,~
~,~,~,~,~,~,~,~,~,~
~,~,~,~,~,~,~,~,~,~
~,~,~,~,~,~,~,~,~,~
