~,~,~,~,~,~,~,~,~,~
~,~,~,~,p,~,~,~,~,~
~,~,~,~,p,~,~,~,~,~
~,t,~,c,p,~,~,~,~,~
~,t,~,c,p,~,~,~,o,~
~,t,~,c,p,~,~,~,o,~
~,~,~,c,~,~,~,~,o,~
~,~,~,~,~,~,~,s,s,s
~,~,~,~,~,~,~,~,~,~
~,~,~,~,~,~,~,~,~,~
