~,~,~,~,~,~,~,~,~,~
~,~,~,~,~,~,~,~,~,~
~,~,~,~,~,~,~,~,~,~
~,~,~,~,~,s,s,s,~,~
~,~,~,o,o,o,~,~,~,~
~,~,~,p,~,~,~,~,~,~
~,~,~,~,p,~,~,~,~,~
c,c,c,c,~,p,~,~,~,~
~,~,~,~,~,~,p,~,~,t
~,~,~,~,~,~,~,p,~,t
