o,o,o,~,~,p,p,~,~,~
~,c,~,~,~,~,t,~,~,~
~,c,~,~,~,~,t,~,~,~
~,c,~,~,~,~,t,~,~,~
~,c,~,~,~,~,t,~,~,~
~,~,~,~,~,~,t,~,~,~
~,~,~,~,~,~,~,~,~,~
~,~,~,~,~,~,~,~,~,~
~,~,~,~,~,~,~,~,~,~
s,s,s,~,~,~,~,~,~,~
