~,~,~,~,~,~,~,~,~,~
~,~,~,~,~,~,~,~,~,~
~,~,~,~,~,~,~,~,~,~
~,~,~,~,~,~,p,~,~,~
~,s,s,c,c,c,p,c,s,~
~,o,~,~,~,~,p,~,~,~
~,o,~,~,~,~,p,~,~,~
~,t,t,~,~,~,p,~,~,~
~,o,~,~,~,~,~,~,~,~
~,~,~,~,~,~,~,~,~,~
